# Fdb version 3
["pdflatex"] 1528704145 "notes.tex" "notes.pdf" "notes" 1528704146
  "C:/Program Files/MiKTeX/fonts/tfm/public/cm/cmbx12.tfm" 1136765053 1324 c910af8c371558dc20f2d7822f66fe64 ""
  "C:/Program Files/MiKTeX/fonts/tfm/public/cm/cmcsc10.tfm" 1136765053 1300 63a6111ee6274895728663cf4b4e7e81 ""
  "C:/Program Files/MiKTeX/fonts/tfm/public/cm/cmmi12.tfm" 1136765053 1524 4414a8315f39513458b80dfc63bff03a ""
  "C:/Program Files/MiKTeX/fonts/tfm/public/cm/cmmi6.tfm" 1136765053 1512 f21f83efb36853c0b70002322c1ab3ad ""
  "C:/Program Files/MiKTeX/fonts/tfm/public/cm/cmmi8.tfm" 1136765053 1520 eccf95517727cb11801f4f1aee3a21b4 ""
  "C:/Program Files/MiKTeX/fonts/tfm/public/cm/cmr12.tfm" 1136765053 1288 655e228510b4c2a1abe905c368440826 ""
  "C:/Program Files/MiKTeX/fonts/tfm/public/cm/cmr17.tfm" 1136765053 1292 296a67155bdbfc32aa9c636f21e91433 ""
  "C:/Program Files/MiKTeX/fonts/tfm/public/cm/cmr6.tfm" 1136765053 1300 b62933e007d01cfd073f79b963c01526 ""
  "C:/Program Files/MiKTeX/fonts/tfm/public/cm/cmr8.tfm" 1136765053 1292 21c1c5bfeaebccffdb478fd231a0997d ""
  "C:/Program Files/MiKTeX/fonts/tfm/public/cm/cmsy10.tfm" 1136765053 1124 6c73e740cf17375f03eec0ee63599741 ""
  "C:/Program Files/MiKTeX/fonts/tfm/public/cm/cmsy6.tfm" 1136765053 1116 933a60c408fc0a863a92debe84b2d294 ""
  "C:/Program Files/MiKTeX/fonts/tfm/public/cm/cmsy8.tfm" 1136765053 1120 8b7d695260f3cff42e636090a8002094 ""
  "C:/Program Files/MiKTeX/fonts/tfm/public/cm/cmtt10.tfm" 1136765053 768 1321e9409b4137d6fb428ac9dc956269 ""
  "C:/Program Files/MiKTeX/fonts/type1/public/amsfonts/cm/cmbx12.pfb" 1247596666 32080 340ef9bf63678554ee606688e7b5339d ""
  "C:/Program Files/MiKTeX/fonts/type1/public/amsfonts/cm/cmcsc10.pfb" 1247596667 32001 6aeea3afe875097b1eb0da29acd61e28 ""
  "C:/Program Files/MiKTeX/fonts/type1/public/amsfonts/cm/cmmi10.pfb" 1247596667 36299 5f9df58c2139e7edcf37c8fca4bd384d ""
  "C:/Program Files/MiKTeX/fonts/type1/public/amsfonts/cm/cmr10.pfb" 1247596667 35752 024fb6c41858982481f6968b5fc26508 ""
  "C:/Program Files/MiKTeX/fonts/type1/public/amsfonts/cm/cmr12.pfb" 1247596667 32722 d7379af29a190c3f453aba36302ff5a9 ""
  "C:/Program Files/MiKTeX/fonts/type1/public/amsfonts/cm/cmr17.pfb" 1247596666 32362 bc3f3eec7ab7d65fe700963d4017d32c ""
  "C:/Program Files/MiKTeX/fonts/type1/public/amsfonts/cm/cmr7.pfb" 1247596667 32762 7fee39e011c23b3589931effd97b9702 ""
  "C:/Program Files/MiKTeX/fonts/type1/public/amsfonts/cm/cmsy10.pfb" 1247596667 32569 5e5ddc8df908dea60932f3c484a54c0d ""
  "C:/Program Files/MiKTeX/fonts/type1/public/amsfonts/cm/cmtt10.pfb" 1247596667 31099 342ef5a582aacbd3346f3cf4579679fa ""
  "C:/Program Files/MiKTeX/tex/generic/ifxetex/ifxetex.sty" 1284260789 1458 43ab4710dc82f3edeabecd0d099626b2 ""
  "C:/Program Files/MiKTeX/tex/generic/oberdiek/ifpdf.sty" 1522794634 1251 d170e11a3246c3392bc7f59595af42cb ""
  "C:/Program Files/MiKTeX/tex/generic/oberdiek/ifvtex.sty" 1522794634 6797 90b7f83b0ad46826bc16058b1e3d48df ""
  "C:/Program Files/MiKTeX/tex/latex/base/article.cls" 1527456798 19823 fcbc01552b07b608574cbf8e1977e0c0 ""
  "C:/Program Files/MiKTeX/tex/latex/base/omscmr.fd" 1527456808 2472 aa08940f0a4dc6c24ae9f943b04ae0b9 ""
  "C:/Program Files/MiKTeX/tex/latex/base/size10.clo" 1527456798 8294 b0f177401f895563eb19304d2389582d ""
  "C:/Program Files/MiKTeX/tex/latex/geometry/geometry.cfg" 1526151849 1099 b6078cb9f5824f08d323a859b6eb16e5 ""
  "C:/Program Files/MiKTeX/tex/latex/geometry/geometry.sty" 1526151849 42805 0653033a985e06c69a2a9cea9a95e31a ""
  "C:/Program Files/MiKTeX/tex/latex/graphics/keyval.sty" 1523175985 2678 6404d0c7d28505fb38ce0d86c2e28ae7 ""
  "C:/Users/ASUS/AppData/Local/MiKTeX/2.9/miktex/data/le/pdftex/pdflatex.fmt" 1528696008 4149882 2f5caea5e52089125c664ae2951aee4e ""
  "C:/Users/ASUS/AppData/Local/MiKTeX/2.9/pdftex/config/pdftex.map" 1528111771 80423 3cfba73105275d3ad410701d89fbdf7a ""
  "notes.aux" 1528704146 2415 7e7b6e77dc1ca820219446a18295a57d ""
  "notes.tex" 1528704145 12706 9e920e33187feced1ff9e4a7c470480d ""
  (generated)
  "notes.log"
  "notes.pdf"
  "notes.aux"
