\relax 
\@writefile{toc}{\contentsline {section}{\numberline {1}Navigation}{1}}
\@writefile{toc}{\contentsline {subsection}{\numberline {1.1}Selecting cells using keyboard}{1}}
\@writefile{toc}{\contentsline {subsection}{\numberline {1.2}Define a cell range}{1}}
\@writefile{toc}{\contentsline {subsection}{\numberline {1.3}Autofil Series}{1}}
\@writefile{toc}{\contentsline {subsection}{\numberline {1.4}Freeze Pane (Always Show Selected Cells)}{2}}
\@writefile{toc}{\contentsline {section}{\numberline {2}Data Manipulation}{2}}
\@writefile{toc}{\contentsline {subsection}{\numberline {2.1}Inserting Rows and Columns}{2}}
\@writefile{toc}{\contentsline {subsection}{\numberline {2.2}Text to Columns (Spliting Information)}{2}}
\@writefile{toc}{\contentsline {subsection}{\numberline {2.3}Tracking Changes}{2}}
\@writefile{toc}{\contentsline {subsection}{\numberline {2.4}Accepting/Rejecting Changes}{3}}
\@writefile{toc}{\contentsline {subsection}{\numberline {2.5}Adding same data to same cells in multiple sheets}{3}}
\@writefile{toc}{\contentsline {subsection}{\numberline {2.6}Color code your sheets}{3}}
\@writefile{toc}{\contentsline {subsection}{\numberline {2.7}Entering Static Date and Time}{3}}
\@writefile{toc}{\contentsline {subsection}{\numberline {2.8}Entering Dynamic Date and Time}{3}}
\@writefile{toc}{\contentsline {section}{\numberline {3}Excel environment shortcuts}{3}}
\@writefile{toc}{\contentsline {subsection}{\numberline {3.1}Hotkeys}{3}}
\@writefile{toc}{\contentsline {subsection}{\numberline {3.2}String Macro/Entering Unicode Characters}{4}}
\@writefile{toc}{\contentsline {section}{\numberline {4}Formulae}{4}}
\@writefile{toc}{\contentsline {subsection}{\numberline {4.1}Absolute Reference (Fix a Value)}{4}}
\@writefile{toc}{\contentsline {subsection}{\numberline {4.2}Name Cells like Variables / Alternative to Absolute Reference}{4}}
\@writefile{toc}{\contentsline {subsection}{\numberline {4.3}Sum of Special Cells: sumif()}{4}}
\@writefile{toc}{\contentsline {subsection}{\numberline {4.4}V Lookup}{5}}
\@writefile{toc}{\contentsline {subsection}{\numberline {4.5}Rank}{5}}
\@writefile{toc}{\contentsline {section}{\numberline {5}Formatting}{5}}
\@writefile{toc}{\contentsline {subsection}{\numberline {5.1}Number Formatting/Input Mask}{5}}
\@writefile{toc}{\contentsline {subsection}{\numberline {5.2}Conditional Formatting/Visualize your data}{5}}
